<?xml version="1.0" encoding="utf-8"?>
<!-- Generator: Adobe Illustrator 15.1.0, SVG Export Plug-In . SVG Version: 6.00 Build 0)  -->
<!DOCTYPE svg PUBLIC "-//W3C//DTD SVG 1.1//EN" "http://www.w3.org/Graphics/SVG/1.1/DTD/svg11.dtd">
<svg version="1.1" id="Livello_1" xmlns="http://www.w3.org/2000/svg" xmlns:xlink="http://www.w3.org/1999/xlink" x="0px" y="0px"
	 width="400px" height="100px" viewBox="0 0 400 100" enable-background="new 0 0 400 100" xml:space="preserve">
<g>
	<path fill="#5A5A5A" d="M24.598,30.701c6.038,0,9.596,0.637,12.583,2.353c4.702,2.793,6.545,6.988,6.545,12.326
		c0,5.336-1.843,9.531-6.545,12.327c-2.988,1.716-6.546,2.353-12.583,2.353v-3.686c3.751-0.701,3.938-3.305,3.938-6.419v-9.592
		c0-2.86-0.568-5.467-3.938-5.976V30.701z M6.171,37.819c0-2.353,0.063-2.733-2.16-3.433c-0.829-0.253-1.398-0.827-1.398-1.716
		c0-1.841,2.095-1.969,2.348-1.969h16.776v40.414c0,2.354-0.063,2.733,2.16,3.43c0.828,0.256,1.398,0.83,1.398,1.72
		c0,1.841-2.096,1.966-2.349,1.966H4.961c-0.253,0-2.348-0.125-2.348-1.966c0-0.89,0.569-1.464,1.398-1.72
		c2.223-0.696,2.16-1.076,2.16-3.43V37.819z"/>
	<path fill="#5A5A5A" d="M45.314,79.186c-3.938,0-6.861-3.177-6.861-6.863c0-3.685,2.923-6.861,6.861-6.861
		c3.941,0,6.862,3.177,6.862,6.861C52.177,76.009,49.256,79.186,45.314,79.186"/>
	<path fill="#5A5A5A" d="M79.374,65.907h-9.278l0.89-3.688h7.754l-6.417-28.087l0.825-3.43h14.041l9.535,40.161
		c0.381,1.778,0.445,2.988,2.223,3.744c0.89,0.388,1.587,0.83,1.587,1.972c0,1.718-2.287,1.654-3.494,1.654H81.216
		c-1.27,0-3.113-0.128-3.113-1.778c0-1.018,0.381-1.336,1.207-1.778c1.654-0.955,1.906-1.401,1.334-3.877L79.374,65.907z
		 M72.576,46.778L66.603,68.51c-1.017,3.876-0.128,4.956,2.032,5.91c1.017,0.443,1.907,0.824,1.907,2.098
		c0,1.779-2.032,1.716-3.302,1.716h-7.31c-1.27,0-3.557-0.062-3.557-1.906c0-1.526,1.081-1.464,2.479-2.16
		c1.334-0.701,3.049-2.162,4.258-6.674l7.624-27.896h0.189L72.576,46.778z"/>
	<path fill="#5A5A5A" d="M112.609,79.186c-3.938,0-6.862-3.177-6.862-6.863c0-3.685,2.923-6.861,6.862-6.861
		c3.941,0,6.862,3.177,6.862,6.861C119.471,76.009,116.551,79.186,112.609,79.186"/>
	<path fill="#5A5A5A" d="M149.34,30.701h0.316c4.13,0,8.452-0.125,12.265,1.716c4.258,2.097,6.418,5.594,6.482,10.421
		c0.125,7.307-4.703,10.486-11.184,12.009v0.129c5.653,0.826,11.056,2.475,11.184,9.215v5.592c0,0.57-0.192,1.841,0.634,1.841
		c1.017,0,1.209-1.841,2.732-1.841c0.825,0,1.845,0.952,1.845,1.841c0,1.845-2.098,4.193-3.497,5.273
		c-2.159,1.779-4.447,2.288-7.182,2.288c-2.732,0-5.208-0.698-7.179-2.668c-2.224-2.287-2.543-5.084-2.543-8.069v-4.323
		c0-2.923-0.062-6.48-3.875-6.862v-3.75c3.429-0.315,3.875-2.415,3.875-5.527v-7.688c0-3.177-0.698-4.704-3.875-5.849V30.701z
		 M130.912,37.819c0-2.353,0.063-2.733-2.16-3.433c-0.825-0.253-1.397-0.827-1.397-1.716c0-1.841,2.096-1.969,2.352-1.969h16.774
		v40.414c0,2.354-0.064,2.733,2.159,3.43c0.826,0.256,1.398,0.83,1.398,1.72c0,1.841-2.095,1.966-2.349,1.966h-17.983
		c-0.256,0-2.352-0.125-2.352-1.966c0-0.89,0.572-1.464,1.397-1.72c2.224-0.696,2.16-1.076,2.16-3.43V37.819z"/>
	<path fill="#5A5A5A" d="M184.417,79.186c-3.938,0-6.862-3.177-6.862-6.863c0-3.685,2.923-6.861,6.862-6.861
		c3.941,0,6.862,3.177,6.862,6.861C191.28,76.009,188.359,79.186,184.417,79.186"/>
	<path fill="#5A5A5A" d="M220.006,75.5c2.982-1.08,3.238-2.986,3.238-4.575V38.01c0-1.59-0.256-3.494-3.238-4.575V29.75
		c13.469,1.205,19.76,12.073,19.76,24.715c0,12.646-6.291,23.516-19.76,24.724V75.5z M217.145,33.435
		c-2.986,1.081-3.242,2.984-3.242,4.575v32.915c0,1.589,0.256,3.495,3.242,4.575v3.688c-13.475-1.208-19.763-12.077-19.763-24.724
		c0-12.642,6.288-23.511,19.763-24.715V33.435z"/>
	<path fill="#5A5A5A" d="M252.731,79.186c-3.943,0-6.865-3.177-6.865-6.863c0-3.685,2.922-6.861,6.865-6.861
		c3.938,0,6.861,3.177,6.861,6.861C259.593,76.009,256.67,79.186,252.731,79.186"/>
	<path fill="#5A5A5A" d="M300.072,43.474c0,1.46-0.255,3.051-2.1,3.051c-1.523,0-2.094-1.211-2.288-2.478
		c-0.698-4.704-4.636-9.531-9.592-10.612V29.75c4.001,0.062,8.258,2.478,8.956,2.478c1.654,0,1.525-2.287,3.18-2.287
		c1.97,0,1.844,2.16,1.844,2.668V43.474z M266.9,64.001c0-1.336,0.254-3.115,2.035-3.115c1.271,0,2.16,1.016,2.351,2.099
		c0.886,5.082,4.443,11.37,10.042,12.516v3.688c-5.532-0.132-6.74-2.354-9.024-2.354c-2.035,0-1.845,2.098-3.433,2.098
		c-1.971,0-1.971-2.354-1.971-2.671V64.001z M283.231,33.435c-2.415,0.826-4.513,2.604-4.513,5.211c0,3.113,1.717,5.021,9.278,7.942
		c11.246,4.319,13.789,10.294,13.789,16.142c0,9.845-8.197,16.265-17.604,16.458V75.5c3.053-0.952,5.658-2.35,5.783-5.848
		c0.128-4.001-4.571-5.651-7.626-6.987c-8.001-3.367-15.439-6.989-15.439-16.97c0-9.657,6.991-15.63,16.331-15.946V33.435z"/>
	<path fill="#5A5A5A" d="M315.956,79.186c-3.938,0-6.861-3.177-6.861-6.863c0-3.685,2.924-6.861,6.861-6.861
		c3.941,0,6.865,3.177,6.865,6.861C322.821,76.009,319.897,79.186,315.956,79.186"/>
	<path fill="#5A5A5A" d="M358.658,55.932h-5.59v-3.686h5.59V37.819c0-2.351,0.065-2.732-2.16-3.433
		c-0.826-0.253-1.397-0.825-1.397-1.715c0-1.842,2.101-1.971,2.35-1.971h17.984c0.255,0,2.351,0.128,2.351,1.971
		c0,0.89-0.572,1.462-1.399,1.715c-2.222,0.701-2.159,1.082-2.159,3.433v33.296c0,2.354-0.062,2.733,2.159,3.433
		c0.827,0.257,1.399,0.827,1.399,1.717c0,1.841-2.096,1.966-2.351,1.966H357.45c-0.249,0-2.35-0.125-2.35-1.966
		c0-0.89,0.571-1.46,1.397-1.717c2.226-0.699,2.16-1.079,2.16-3.433V55.932z M350.211,71.115c0,2.354-0.066,2.733,2.159,3.433
		c0.827,0.257,1.398,0.827,1.398,1.717c0,1.841-2.098,1.966-2.351,1.966h-17.986c-0.252,0-2.347-0.125-2.347-1.966
		c0-0.89,0.568-1.46,1.392-1.717c2.226-0.699,2.166-1.079,2.166-3.433V37.819c0-2.351,0.06-2.732-2.166-3.433
		c-0.823-0.253-1.392-0.825-1.392-1.715c0-1.842,2.095-1.971,2.347-1.971h17.986c0.253,0,2.351,0.128,2.351,1.971
		c0,0.89-0.571,1.462-1.398,1.715c-2.226,0.701-2.159,1.082-2.159,3.433V71.115z"/>
	<path fill="#5A5A5A" d="M392.912,79.186c-3.941,0-6.862-3.177-6.862-6.863c0-3.685,2.921-6.861,6.862-6.861
		c3.938,0,6.862,3.177,6.862,6.861C399.774,76.009,396.851,79.186,392.912,79.186"/>
</g>
</svg>
